{
    "label": "Programmer Workman",
    "fingerStart": {
        "1": 29,
        "2": 30,
        "3": 31,
        "4": 32,
        "5": 56,
        "6": 40,
        "7": 35,
        "8": 36,
        "9": 37,
        "10": 38,
        "11": -1,
        "false": -1
    },
    "keyboardType": "standard",
    "author": "Alexander Shukaev",
    "authorUrl": "http://Alexander.Shukaev.name",
    "moreInfoUrl": "http://workmanlayout.com/",
    "moreInfoText": "workmanlayout.com",
    "keys": [
        {
            "primary": 92,
            "shift": 33,
            "finger": 1,
            "id": 0,
            "altGr": -1,
            "shiftAltGr": -1
        },
        {
            "primary": 60,
            "shift": 49,
            "finger": 1,
            "id": 1,
            "altGr": -1,
            "shiftAltGr": -1
        },
        {
            "primary": 91,
            "shift": 50,
            "finger": 2,
            "id": 2,
            "altGr": -1,
            "shiftAltGr": -1
        },
        {
            "primary": 123,
            "shift": 51,
            "finger": 3,
            "id": 3,
            "altGr": -1,
            "shiftAltGr": -1
        },
        {
            "primary": 40,
            "shift": 52,
            "finger": 4,
            "id": 4,
            "altGr": -1,
            "shiftAltGr": -1
        },
        {
            "primary": 61,
            "shift": 53,
            "finger": 4,
            "id": 5,
            "altGr": -1,
            "shiftAltGr": -1
        },
        {
            "primary": 42,
            "shift": 54,
            "finger": 7,
            "id": 6,
            "altGr": -1,
            "shiftAltGr": -1
        },
        {
            "primary": 41,
            "shift": 55,
            "finger": 7,
            "id": 7,
            "altGr": -1,
            "shiftAltGr": -1
        },
        {
            "primary": 125,
            "shift": 56,
            "finger": 8,
            "id": 8,
            "altGr": -1,
            "shiftAltGr": -1
        },
        {
            "primary": 93,
            "shift": 57,
            "finger": 9,
            "id": 9,
            "altGr": -1,
            "shiftAltGr": -1
        },
        {
            "primary": 62,
            "shift": 48,
            "finger": 10,
            "id": 10,
            "altGr": -1,
            "shiftAltGr": -1
        },
        {
            "primary": 47,
            "shift": 63,
            "finger": 10,
            "id": 11,
            "altGr": -1,
            "shiftAltGr": -1
        },
        {
            "primary": 35,
            "shift": 37,
            "finger": 10,
            "id": 12,
            "altGr": -1,
            "shiftAltGr": -1
        },
        {
            "primary": 8,
            "finger": 6,
            "id": 13,
            "shift": -1,
            "altGr": -1,
            "shiftAltGr": -1
        },
        {
            "primary": 9,
            "finger": 1,
            "id": 14,
            "shift": -1,
            "altGr": -1,
            "shiftAltGr": -1
        },
        {
            "primary": 113,
            "shift": 81,
            "finger": 1,
            "id": 15
        },
        {
            "primary": 100,
            "shift": 68,
            "finger": 2,
            "id": 16,
            "altGr": -1,
            "shiftAltGr": -1
        },
        {
            "primary": 114,
            "shift": 82,
            "finger": 3,
            "id": 17,
            "altGr": -1,
            "shiftAltGr": -1
        },
        {
            "primary": 119,
            "shift": 87,
            "finger": 4,
            "id": 18,
            "altGr": -1,
            "shiftAltGr": -1
        },
        {
            "primary": 98,
            "shift": 66,
            "finger": 4,
            "id": 19,
            "altGr": -1,
            "shiftAltGr": -1
        },
        {
            "primary": 106,
            "shift": 74,
            "finger": 7,
            "id": 20
        },
        {
            "primary": 102,
            "shift": 70,
            "finger": 7,
            "id": 21,
            "altGr": -1,
            "shiftAltGr": -1
        },
        {
            "primary": 117,
            "shift": 85,
            "finger": 8,
            "id": 22
        },
        {
            "primary": 112,
            "shift": 80,
            "finger": 9,
            "id": 23,
            "altGr": -1,
            "shiftAltGr": -1
        },
        {
            "primary": 59,
            "shift": 58,
            "finger": 10,
            "id": 24
        },
        {
            "primary": 96,
            "shift": 126,
            "finger": 10,
            "id": 25,
            "altGr": -1,
            "shiftAltGr": -1
        },
        {
            "primary": 38,
            "shift": 64,
            "finger": 10,
            "id": 26,
            "altGr": -1,
            "shiftAltGr": -1
        },
        {
            "primary": 124,
            "shift": 36,
            "finger": 10,
            "id": 27,
            "altGr": -1,
            "shiftAltGr": -1
        },
        {
            "primary": 20,
            "finger": 1,
            "id": 28,
            "shift": -1,
            "altGr": -1,
            "shiftAltGr": -1
        },
        {
            "primary": 97,
            "shift": 65,
            "finger": 1,
            "id": 29,
            "altGr": -1,
            "shiftAltGr": -1
        },
        {
            "primary": 115,
            "shift": 83,
            "finger": 2,
            "id": 30,
            "altGr": -1,
            "shiftAltGr": -1
        },
        {
            "primary": 104,
            "shift": 72,
            "finger": 3,
            "id": 31,
            "altGr": -1,
            "shiftAltGr": -1
        },
        {
            "primary": 116,
            "shift": 84,
            "finger": 4,
            "id": 32,
            "altGr": -1,
            "shiftAltGr": -1
        },
        {
            "primary": 103,
            "shift": 71,
            "finger": 4,
            "id": 33,
            "altGr": -1,
            "shiftAltGr": -1
        },
        {
            "primary": 121,
            "shift": 89,
            "finger": 7,
            "id": 34,
            "altGr": -1,
            "shiftAltGr": -1
        },
        {
            "primary": 110,
            "shift": 78,
            "finger": 7,
            "id": 35,
            "altGr": -1,
            "shiftAltGr": -1
        },
        {
            "primary": 101,
            "shift": 69,
            "finger": 8,
            "id": 36,
            "altGr": -1,
            "shiftAltGr": -1
        },
        {
            "primary": 111,
            "shift": 79,
            "finger": 9,
            "id": 37,
            "altGr": -1,
            "shiftAltGr": -1
        },
        {
            "primary": 105,
            "shift": 73,
            "finger": 10,
            "id": 38,
            "altGr": -1,
            "shiftAltGr": -1
        },
        {
            "primary": 39,
            "shift": 34,
            "finger": 10,
            "id": 39
        },
        {
            "primary": 13,
            "finger": 6,
            "id": 40,
            "shift": -1,
            "altGr": -1,
            "shiftAltGr": -1
        },
        {
            "primary": 16,
            "finger": 1,
            "id": 41
        },
        {
            "primary": 122,
            "shift": 90,
            "finger": 1,
            "id": 42
        },
        {
            "primary": 120,
            "shift": 88,
            "finger": 2,
            "id": 43
        },
        {
            "primary": 109,
            "shift": 77,
            "finger": 3,
            "id": 44,
            "altGr": -1,
            "shiftAltGr": -1
        },
        {
            "primary": 99,
            "shift": 67,
            "finger": 4,
            "id": 45,
            "altGr": -1,
            "shiftAltGr": -1
        },
        {
            "primary": 118,
            "shift": 86,
            "finger": 4,
            "id": 46,
            "altGr": -1,
            "shiftAltGr": -1
        },
        {
            "primary": 107,
            "shift": 75,
            "finger": 7,
            "id": 47,
            "altGr": -1,
            "shiftAltGr": -1
        },
        {
            "primary": 108,
            "shift": 76,
            "finger": 7,
            "id": 48,
            "altGr": -1,
            "shiftAltGr": -1
        },
        {
            "primary": 44,
            "shift": 46,
            "finger": 8,
            "id": 49,
            "altGr": -1,
            "shiftAltGr": -1
        },
        {
            "primary": 45,
            "shift": 95,
            "finger": 9,
            "id": 50,
            "altGr": -1,
            "shiftAltGr": -1
        },
        {
            "primary": 43,
            "shift": 94,
            "finger": 10,
            "id": 51,
            "altGr": -1,
            "shiftAltGr": -1
        },
        {
            "primary": -16,
            "finger": 10,
            "id": 52,
            "shift": -1,
            "altGr": -1,
            "shiftAltGr": -1
        },
        {
            "primary": 17,
            "finger": 1,
            "id": 53,
            "shift": -1,
            "altGr": -1,
            "shiftAltGr": -1
        },
        {
            "primary": -91,
            "finger": 5,
            "id": 54
        },
        {
            "primary": 18,
            "finger": 5,
            "id": 55
        },
        {
            "primary": 32,
            "finger": 5,
            "id": 56,
            "shift": -1,
            "altGr": -1,
            "shiftAltGr": -1
        },
        {
            "primary": -18,
            "finger": 6,
            "id": 57
        },
        {
            "primary": -91,
            "finger": 6,
            "id": 58
        },
        {
            "primary": -93,
            "finger": 6,
            "id": 59
        },
        {
            "primary": 17,
            "finger": 10,
            "id": 60,
            "shift": -1,
            "altGr": -1,
            "shiftAltGr": -1
        }
    ]
}
